[2024-05-29T13:57:11.448+0000] {local_task_job_runner.py:120} INFO - ::group::Pre task execution logs
[2024-05-29T13:57:11.594+0000] {taskinstance.py:2076} INFO - Dependencies all met for dep_context=non-requeueable deps ti=<TaskInstance: REA_HSC_monthly_XCOM.latest_only scheduled__2023-07-01T00:00:00+00:00 [queued]>
[2024-05-29T13:57:11.683+0000] {taskinstance.py:2076} INFO - Dependencies all met for dep_context=requeueable deps ti=<TaskInstance: REA_HSC_monthly_XCOM.latest_only scheduled__2023-07-01T00:00:00+00:00 [queued]>
[2024-05-29T13:57:11.687+0000] {taskinstance.py:2306} INFO - Starting attempt 1 of 2
[2024-05-29T13:57:12.328+0000] {taskinstance.py:2330} INFO - Executing <Task(LatestOnlyOperator): latest_only> on 2023-07-01 00:00:00+00:00
[2024-05-29T13:57:12.365+0000] {warnings.py:110} WARNING - /home/***/.local/lib/python3.12/site-packages/***/task/task_runner/standard_task_runner.py:61: DeprecationWarning: This process (pid=66) is multi-threaded, use of fork() may lead to deadlocks in the child.
  pid = os.fork()

[2024-05-29T13:57:12.389+0000] {standard_task_runner.py:63} INFO - Started process 91 to run task
[2024-05-29T13:57:12.395+0000] {standard_task_runner.py:90} INFO - Running: ['***', 'tasks', 'run', 'REA_HSC_monthly_XCOM', 'latest_only', 'scheduled__2023-07-01T00:00:00+00:00', '--job-id', '128', '--raw', '--subdir', 'DAGS_FOLDER/datamanagmentcorrectedxcom_dag_.py', '--cfg-path', '/tmp/tmpe60ulx84']
[2024-05-29T13:57:12.443+0000] {standard_task_runner.py:91} INFO - Job 128: Subtask latest_only
[2024-05-29T13:57:12.790+0000] {task_command.py:426} INFO - Running <TaskInstance: REA_HSC_monthly_XCOM.latest_only scheduled__2023-07-01T00:00:00+00:00 [running]> on host b643a941c089
[2024-05-29T13:57:13.690+0000] {taskinstance.py:2648} INFO - Exporting env vars: AIRFLOW_CTX_DAG_OWNER='***' AIRFLOW_CTX_DAG_ID='REA_HSC_monthly_XCOM' AIRFLOW_CTX_TASK_ID='latest_only' AIRFLOW_CTX_EXECUTION_DATE='2023-07-01T00:00:00+00:00' AIRFLOW_CTX_TRY_NUMBER='1' AIRFLOW_CTX_DAG_RUN_ID='scheduled__2023-07-01T00:00:00+00:00'
[2024-05-29T13:57:13.714+0000] {taskinstance.py:430} INFO - ::endgroup::
[2024-05-29T13:57:13.850+0000] {latest_only.py:63} INFO - Checking latest only with left_window: 2023-08-01 00:00:00+00:00 right_window: 2023-09-01 00:00:00+00:00 now: 2024-05-29 13:57:13.850827+00:00
[2024-05-29T13:57:13.865+0000] {latest_only.py:71} INFO - Not latest execution, skipping downstream.
[2024-05-29T13:57:13.875+0000] {branch.py:36} INFO - Branch into []
[2024-05-29T13:57:13.876+0000] {skipmixin.py:178} INFO - Following branch []
[2024-05-29T13:57:14.033+0000] {skipmixin.py:246} INFO - Skipping tasks [('process_rea_full_files', -1), ('process_rea_month_files', -1)]
[2024-05-29T13:57:14.196+0000] {taskinstance.py:441} INFO - ::group::Post task execution logs
[2024-05-29T13:57:14.307+0000] {taskinstance.py:1206} INFO - Marking task as SUCCESS. dag_id=REA_HSC_monthly_XCOM, task_id=latest_only, run_id=scheduled__2023-07-01T00:00:00+00:00, execution_date=20230701T000000, start_date=20240529T135711, end_date=20240529T135714
[2024-05-29T13:57:14.499+0000] {local_task_job_runner.py:240} INFO - Task exited with return code 0
[2024-05-29T13:57:14.699+0000] {taskinstance.py:3498} INFO - 0 downstream tasks scheduled from follow-on schedule check
[2024-05-29T13:57:14.727+0000] {local_task_job_runner.py:222} INFO - ::endgroup::
