[2024-06-05T21:10:29.401+0000] {local_task_job_runner.py:120} INFO - ::group::Pre task execution logs
[2024-06-05T21:10:29.472+0000] {taskinstance.py:2076} INFO - Dependencies all met for dep_context=non-requeueable deps ti=<TaskInstance: REA_monthly_log_trigger_condition.log_rea_month_success scheduled__2023-10-01T00:00:00+00:00 [queued]>
[2024-06-05T21:10:29.503+0000] {taskinstance.py:2076} INFO - Dependencies all met for dep_context=requeueable deps ti=<TaskInstance: REA_monthly_log_trigger_condition.log_rea_month_success scheduled__2023-10-01T00:00:00+00:00 [queued]>
[2024-06-05T21:10:29.505+0000] {taskinstance.py:2306} INFO - Starting attempt 2 of 2
[2024-06-05T21:10:29.536+0000] {taskinstance.py:2330} INFO - Executing <Task(BashOperator): log_rea_month_success> on 2023-10-01 00:00:00+00:00
[2024-06-05T21:10:29.547+0000] {warnings.py:110} WARNING - /home/***/.local/lib/python3.12/site-packages/***/task/task_runner/standard_task_runner.py:61: DeprecationWarning: This process (pid=501) is multi-threaded, use of fork() may lead to deadlocks in the child.
  pid = os.fork()

[2024-06-05T21:10:29.550+0000] {standard_task_runner.py:63} INFO - Started process 502 to run task
[2024-06-05T21:10:29.551+0000] {standard_task_runner.py:90} INFO - Running: ['***', 'tasks', 'run', 'REA_monthly_log_trigger_condition', 'log_rea_month_success', 'scheduled__2023-10-01T00:00:00+00:00', '--job-id', '324', '--raw', '--subdir', 'DAGS_FOLDER/datamanagementcorrectedlog_trigger_condition_dag.py', '--cfg-path', '/tmp/tmplcfxssej']
[2024-06-05T21:10:29.554+0000] {standard_task_runner.py:91} INFO - Job 324: Subtask log_rea_month_success
[2024-06-05T21:10:29.671+0000] {task_command.py:426} INFO - Running <TaskInstance: REA_monthly_log_trigger_condition.log_rea_month_success scheduled__2023-10-01T00:00:00+00:00 [running]> on host b643a941c089
[2024-06-05T21:10:29.909+0000] {taskinstance.py:2648} INFO - Exporting env vars: AIRFLOW_CTX_DAG_OWNER='***' AIRFLOW_CTX_DAG_ID='REA_monthly_log_trigger_condition' AIRFLOW_CTX_TASK_ID='log_rea_month_success' AIRFLOW_CTX_EXECUTION_DATE='2023-10-01T00:00:00+00:00' AIRFLOW_CTX_TRY_NUMBER='2' AIRFLOW_CTX_DAG_RUN_ID='scheduled__2023-10-01T00:00:00+00:00'
[2024-06-05T21:10:29.912+0000] {taskinstance.py:430} INFO - ::endgroup::
[2024-06-05T21:10:29.955+0000] {subprocess.py:63} INFO - Tmp dir root location: /tmp
[2024-06-05T21:10:29.957+0000] {subprocess.py:75} INFO - Running command: ['/usr/bin/bash', '-c', "echo 'REA month processing success' >> C:/Users/Imy/Desktop/***/dags/log_trigger_condition.csv"]
[2024-06-05T21:10:29.983+0000] {subprocess.py:86} INFO - Output:
[2024-06-05T21:10:29.987+0000] {subprocess.py:93} INFO - /usr/bin/bash: line 1: C:/Users/Imy/Desktop/***/dags/log_trigger_condition.csv: No such file or directory
[2024-06-05T21:10:29.989+0000] {subprocess.py:97} INFO - Command exited with return code 1
[2024-06-05T21:10:29.991+0000] {taskinstance.py:441} INFO - ::group::Post task execution logs
[2024-06-05T21:10:30.023+0000] {taskinstance.py:2905} ERROR - Task failed with exception
Traceback (most recent call last):
  File "/home/airflow/.local/lib/python3.12/site-packages/airflow/models/taskinstance.py", line 465, in _execute_task
    result = _execute_callable(context=context, **execute_callable_kwargs)
             ^^^^^^^^^^^^^^^^^^^^^^^^^^^^^^^^^^^^^^^^^^^^^^^^^^^^^^^^^^^^^
  File "/home/airflow/.local/lib/python3.12/site-packages/airflow/models/taskinstance.py", line 432, in _execute_callable
    return execute_callable(context=context, **execute_callable_kwargs)
           ^^^^^^^^^^^^^^^^^^^^^^^^^^^^^^^^^^^^^^^^^^^^^^^^^^^^^^^^^^^^
  File "/home/airflow/.local/lib/python3.12/site-packages/airflow/models/baseoperator.py", line 400, in wrapper
    return func(self, *args, **kwargs)
           ^^^^^^^^^^^^^^^^^^^^^^^^^^^
  File "/home/airflow/.local/lib/python3.12/site-packages/airflow/operators/bash.py", line 243, in execute
    raise AirflowException(
airflow.exceptions.AirflowException: Bash command failed. The command returned a non-zero exit code 1.
[2024-06-05T21:10:30.036+0000] {taskinstance.py:1206} INFO - Marking task as FAILED. dag_id=REA_monthly_log_trigger_condition, task_id=log_rea_month_success, run_id=scheduled__2023-10-01T00:00:00+00:00, execution_date=20231001T000000, start_date=20240605T211029, end_date=20240605T211030
[2024-06-05T21:10:30.075+0000] {standard_task_runner.py:110} ERROR - Failed to execute job 324 for task log_rea_month_success (Bash command failed. The command returned a non-zero exit code 1.; 502)
[2024-06-05T21:10:30.130+0000] {local_task_job_runner.py:240} INFO - Task exited with return code 1
[2024-06-05T21:10:30.187+0000] {taskinstance.py:3498} INFO - 0 downstream tasks scheduled from follow-on schedule check
[2024-06-05T21:10:30.208+0000] {local_task_job_runner.py:222} INFO - ::endgroup::
